Studying approval margins of Donal Trump · Portfolio website for Neel Kamal Puri
…
# Use `lubridate` to fix dates, as they are given as characters.
approval_polllist_dates <- approval_polllist %>% 
  mutate(enddate = mdy(enddate)) %>% 
  mutate(week_count = week(enddate)) %>% 
  mutate(year = year(enddate))
approval_polllist_dates

## # A tibble: 15,534 x 24
##    president subgroup modeldate startdate enddate    pollster grade samplesize
##    <chr>     <chr>    <chr>     <chr>     <date>     <chr>    <chr>      <dbl>
##  1 Donald T~ All pol~ 9/18/2020 1/20/2017 2017-01-22 Morning~ B/C         1992
##  2 Donald T~ All pol~ 9/18/2020 1/20/2017 2017-01-22 Gallup   B           1500
##  3 Donald T~ All pol~ 9/18/2020 1/21/2017 2017-01-23 Gallup   B           1500
##  4 Donald T~ All pol~ 9/18/2020 1/20/2017 2017-01-24 Ipsos    B-          1632
##  5 Donald T~ All pol~ 9/18/2020 1/22/2017 2017-01-24 Rasmuss~ C+          1500
##  6 Donald T~ All pol~ 9/18/2020 1/20/2017 2017-01-25 Quinnip~ B+          1190
##  7 Donald T~ All pol~ 9/18/2020 1/21/2017 2017-01-25 Ipsos    B-          1651
##  8 Donald T~ All pol~ 9/18/2020 1/22/2017 2017-01-24 Gallup   B           1500
##  9 Donald T~ All pol~ 9/18/2020 1/22/2017 2017-01-26 Ipsos    B-          1678
## 10 Donald T~ All pol~ 9/18/2020 1/23/2017 2017-01-24 Public ~ B           1043
## # ... with 15,524 more rows, and 16 more variables: population <chr>,
## #   weight <dbl>, influence <dbl>, approve <dbl>, disapprove <dbl>,
## #   adjusted_approve <dbl>, adjusted_disapprove <dbl>, multiversions <chr>,
## #   tracking <lgl>, url <chr>, poll_id <dbl>, question_id <dbl>,
## #   createddate <chr>, timestamp <chr>, week_count <dbl>, year <dbl>
…
